{
  "training": [
    {
      "key": "60001c737c4da20036a01b72",
      "name": "Obe",
      "title": "Obe",
      "dependecy": [],
      "keyCategory": "5ff43d86ac39550035f8b127",
      "roomAffectation": ["5ff44061ac39550035f8b12a"],
      "curiculums": [],
      "equipment": [],
      "slots": [],
      "length": 480,
      "occurrence": 1,
      "existingSessions": []
    }
  ],
  "trainer": [
    {
      "key": "5ffdb740133f1d0035f1e25b",
      "type": "trainer",
      "name": "orga 2 fdfdf"
    }
  ],
  "room": [
    {
      "key": "5ff44061ac39550035f8b12a",
      "name": "Salle 1",
      "volume": 1000,
      "type": "room"
    },
    {
      "key": "6080148861f49d009d2c43a6",
      "name": "Salle 2",
      "volume": 1000,
      "type": "room"
    }
  ],
  "roomAvailability": [
    {
      "startAvailability": "2021-01-09T07:00:00.000Z",
      "endAvailability": "2021-01-09T16:00:00.000Z",
      "keyRoom": "5ff44061ac39550035f8b12a",
      "volume": 1000,
      "type": "roomAvailability",
      "equipment": [],
      "lengthAvailability": 540.1333333333333,
      "nbAvailability": 17.004444444444445
    },
    {
      "startAvailability": "2021-01-10T07:00:00.000Z",
      "endAvailability": "2021-01-10T16:00:00.000Z",
      "keyRoom": "5ff44061ac39550035f8b12a",
      "volume": 1000,
      "type": "roomAvailability",
      "equipment": [],
      "lengthAvailability": 540.1333333333333,
      "nbAvailability": 17.004444444444445
    },
    {
      "startAvailability": "2021-01-09T07:00:00.000Z",
      "endAvailability": "2021-01-09T16:00:00.000Z",
      "keyRoom": "6080148861f49d009d2c43a6",
      "volume": 1000,
      "type": "roomAvailability",
      "equipment": [],
      "lengthAvailability": 540.1333333333333,
      "nbAvailability": 17.004444444444445
    },
    {
      "startAvailability": "2021-01-10T07:00:00.000Z",
      "endAvailability": "2021-01-10T16:00:00.000Z",
      "keyRoom": "6080148861f49d009d2c43a6",
      "volume": 1000,
      "type": "roomAvailability",
      "equipment": [],
      "lengthAvailability": 540.1333333333333,
      "nbAvailability": 17.004444444444445
    }
  ],
  "trainerAvailability": [
    {
      "startAvailability": "2021-01-09T07:00:00.000Z",
      "endAvailability": "2021-01-09T16:00:00.000Z",
      "affectation": ["60001c737c4da20036a01b72"],
      "keyTrainer": "5ffdb740133f1d0035f1e25b",
      "type": "trainerAvailability"
    },
    {
      "startAvailability": "2021-01-10T07:00:00.000Z",
      "endAvailability": "2021-01-10T17:00:00.000Z",
      "affectation": ["60001c737c4da20036a01b72"],
      "keyTrainer": "5ffdb740133f1d0035f1e25b",
      "type": "trainerAvailability"
    }
  ]
}
